-----BEGIN PGP SIGNATURE-----
Version: BCPG v1.46

iQEcBAABAgAGBQJSZKYoAAoJEBf5k7aRfguZFlwIALWTVggrjWjsil4zyLyQLB4t
iKj6oq1FfC6InCWN5KL8G1NsmsokTIkYVwXYT+TQL7HzHbHpR3GFhMBeUOGxGtMl
r7HMY3zh/gJCImCO4dh0kLXgWAz8KBE9Zq9ijP9DwyjFz1g7HFx+MWloe5mvJdCK
6tm0s2n31bWqIrdwEaL2YRAb1LcGCDOOQVyQ+fK6uSGnV/jtI9dDUWSl1VNJ2aWZ
b2Gb8c52nX7szhtGwY4/ZL/hd10qDDsMBHanoArczKs9XDvhv4szujOqjW6mqnnS
er2yPTlM9PyHGoVgq981JeELtTsCudm3rhGFDgL2aFdfw4tNvJ1H/JpmOGuKkRU=
=f+at
-----END PGP SIGNATURE-----
