-----BEGIN PGP SIGNATURE-----
Version: BCPG v1.46

iQEcBAABAgAGBQJSZKYoAAoJEBf5k7aRfguZGsUH/A2MqQnKQx2adpP1lyYjK2KN
tn9IACFOWJkawMgNT0BG6k1tLzqd/UkyDkvcLe7kVqlr2ESPcokNiQWwa/fRPlqr
qb+W4LmpSyVd+D5RDfh516y2ufid42HFjlTNjzHbQg81GY5OnBG6KBCi+swzpW7S
5V2+2U6LK6PlOXYLhh8DTc16LU4n2FLpVAw0EkhT+iMRprZNd/8SGVRCWLtzAISZ
ClF8qtNUzXHhyHt9HEEwYneg1MTLoNcEH9LPdHA/70E7v3fL3rAVBjNy9BRViecw
WcMzf2wTUR2JtAW/VgVKbjZWSMx8rpHjjZfk/pipQVhn141psCMwifhyENVakd4=
=7Q0Y
-----END PGP SIGNATURE-----
