-----BEGIN PGP SIGNATURE-----
Version: BCPG v1.46

iQEcBAABAgAGBQJSq7VfAAoJEBf5k7aRfguZ4xsIAJEkQ8lfK9o7OM6Qp2RlL/kg
AihGZ/2EKyOT7qmaSPIhpztYvUZ3YrpYWOMToFPy5McAZ97XrbvgQJIUP4+n9HHf
vR9+yzQd6OegUMgzUv1hdZWVZSTd+i05mYkDY0td/fvT2K6vn/nKH4As6hMmHVj9
muoIY6S/FscFQIZl0v635rxQhRBN/ck7SYJ7DHRW8E9Z2ps4Blepazv3FM5MUu8N
ouih12IN0MF2D9AGdOV+9ZMPt14E010JrbkCofq8MCgYgqfRGqOr5FwdYeIr1X+G
dcAFngKZuY2Sx7j8ll9qsuhBSXL4cpzNwBo8V2bJHsu2WNgs6bLQDRH4pjL/4aM=
=C+Vt
-----END PGP SIGNATURE-----
