-----BEGIN PGP SIGNATURE-----
Version: BCPG v1.46

iQEcBAABAgAGBQJSq7VeAAoJEBf5k7aRfguZCNUIAIsutBja02vgb90CVwZZyRkq
lDszgEM9AHZXRhtd5kGMwQ9lm9RJ7JgITXx9IP6miItfdiyDr/wUp0/hcjhj+NVs
3OJiPIj1biaGwXtFY9SN91qpnvf5AtITKb81gkmrzZqqmPFXsDp+Uvo/ycBJ+3u8
ETXGIOJlME8bq+omYpdWyOeqMJRp02h5JsQYpiXQomYsXqZKQSHF1qh1UQfYNSAd
Zeg+blOmGbAdjMaZcwGKUYAPVQQVt6SHG4fr2PYe15iREylqzmocq1BUY1sOmoQh
NqlBDUqJMoNYjE/pM4pPdQtTeMYReFtmiv9RsAPrpcoiBT9SFtLRlBAytr7wMcQ=
=0NKV
-----END PGP SIGNATURE-----
