-----BEGIN PGP SIGNATURE-----
Version: BCPG v1.46

iQEcBAABAgAGBQJSdaoIAAoJEBf5k7aRfguZ2ZoH/RfPbs0pRGABWhgUrJJItlpQ
1N2dlYkt9DL5xfWOyCv/wSdY3Hhvr6dn9Ex+H4s3CuNwVBRvdNspFU1pvPi+2hfF
1LF4kp5/GCETsi1vd6ptIuB27kackdnSM5cwLQ+gyQZBMnuT5UmUsVlTrbC0ke6b
/8dYRhaF2mz1IxnzXaj5Luvmk+clsQfkzo5DYG1o9LrAjBJdkSfa71jZjqxtVSS+
4r40SphPOGmyvoJI7kJN1ul74nBG1aYHe7Rteoeo+Op/mMWiye3cuc7i9irXuSKu
n9OKIa14dWbaVdkkHn0oJYPzpQmI/pp88cAOYIiXraqWnzOF5u1o9ZS2sx25kHQ=
=cdWL
-----END PGP SIGNATURE-----
