-----BEGIN PGP SIGNATURE-----
Version: BCPG v1.46

iQEcBAABAgAGBQJStTtjAAoJEBf5k7aRfguZVhEH/3IvQP6qClSgJoOx+zQouY5R
LgUmJsMYfFvmy+nVf7W8fn6r2hLNBG1pBxMx8HsfdvVPmBMBwQJOfhRkP1biV23W
tSQxowY0w9qVeoIlKPQSKpqTWA4MAAvWj0lndco2S6q8TVVH3i1iQYS8zs6Il6Ue
Xe/z02mSmWCk3wACTKuf4eULLmfZGvUCiYHcfoc7Pr9WwhYH/5rEAVsyTexktbcn
qM9DR0+TqEXcVlLjYVq+TgLNzabCtvB3Bm6wfdamagEYwZdvBbyAzWuOJDSMvjYD
mmeuZKGDDc/jTXoUpLLwrbJx959mbPp8E0yYngaTA3LBaVQRq2vCSlCB++RzHzc=
=pE+O
-----END PGP SIGNATURE-----
