-----BEGIN PGP SIGNATURE-----
Version: BCPG v1.46

iQEcBAABAgAGBQJStPJCAAoJEBf5k7aRfguZ7AsIAKel9+ZQda+Rj/7HL++uTvIL
+QlwBm5GFXtrBC8JmHuKpVr1w4gyuxaYEan9qGeghEK8BshutmtIuBQeWh5tstO4
XjxtWPbAvI/LI0QdZu14boxo+NEJDBzAaQlTgRVnDeSY23A1inYjdmNSHm9SNqGW
4mWhvl0DazgmatKc7L4GBZv+TLBcplfji5jiMqhyBv43vXmKsW7R4H7BeueIyHxl
WJiOP7TM3vVr6rimZDhMPkpqgDQeeGxxgAPbM960ozIIvGStwjZ2vO2Zvbt/ov1f
Jj9iGinM0mNyJvMyLPkIEjsXf9FyVG8ilCpQBy6Y0daJO2cmBLRvk7rLMFQ3NAc=
=wyQ6
-----END PGP SIGNATURE-----
