-----BEGIN PGP SIGNATURE-----
Version: BCPG v1.46

iQEcBAABAgAGBQJUaaJiAAoJEBf5k7aRfguZ75IIAJjCjIRnDKcXYHbbQ3v4ZNip
cNXhTWLPXSoQq5CpdMhUSROzDte9U8/lVtBsEtkvK8PXybshvydNSxiFPklXZX/U
XCa+zcz3G9qHOKUDxYOLSvY4xWPFQ1oKE3bWnu9ydjFO9dweJBVH7BskcnQYU75l
8TobiAmUh9PvX+8cLKRtM4MNVa5hLiLH7RO626fZD+8z0YZryFiU20hp01riEMMf
uAk1GW/Pm1Oa/KjIGmPaRdeCIDMoWt8W6xqN0Yi7KYm7CrZmkz+jRS+4UCw/rA6v
jvvVBX0+a6vqns+ChTkV7/mDzn9L6V4UkpvW3Cp8yWLDhfje2czC4LI9PoFfrLU=
=Yylm
-----END PGP SIGNATURE-----
