-----BEGIN PGP SIGNATURE-----
Version: BCPG v1.46

iQEcBAABAgAGBQJUeZJBAAoJEBf5k7aRfguZExsIANAxxnTKAsAdc4GhGzqho5Yg
FevLpM8jGFQOt68liSGCvxZ+bGFr0JKPb33UVVdTglzKuRocK3//grkwF8VAebR7
c2iCklc05gnxcEX9SdpP9rlBi1IB4MLfJ0XXqDBto9KRTFfZSM1oRJvoD1GqiD2+
e3NURfbARji4LAXh9EsaHlPH+pl7W0tFOdRYGS9i2SM+0uAG2cnERlzmCUZLyr4s
ZktKsba45Ll4k+iEVGq2l0pFXaQ5B0SqEvKA4rUKLr7ZXVJ2e49a/Yaq0v7BZiyB
gIRG+Zc3kOIfpVgqsTb3kEM3la5ydMkX+BisNS4LG+yGWDF9LpAiC6If2jHpCPY=
=Oj1M
-----END PGP SIGNATURE-----
