-----BEGIN PGP SIGNATURE-----
Version: BCPG v1.46

iQEcBAABAgAGBQJUggUpAAoJEBf5k7aRfguZrOwIAIGb/6og7rbrHuJFoGPx6+dP
BCBTlQHUtj4PpF5BwWLSU2s3DOcQkTfscKjrCOKh3qwIhqlzuEw8vOHj8S/MNtBr
f7NfeoMD4klR21nn3mS9oqpMLayI9nWMvAoEuqby6WSGWpMHHPzXhe9E1XvgC9zd
s92f7ecpnNOg8P4OhKy4I3+TPFqH2C0c1LWPMpGJh1IE1qjhPrOosDMSIiIr57tD
MEfmU6oqHbFM6PYol7fjDMzLNwx8GyoRmRGiP8+FUC+ChwNeep1O1jDZGAsESdld
Qqtqwyx2aeYXkKp1am69Et3MYaOxztiFSI/zRF06NCWam8MFakwko7YifisKpk8=
=82sk
-----END PGP SIGNATURE-----
