-----BEGIN PGP SIGNATURE-----
Version: BCPG v1.46

iQEcBAABAgAGBQJTbyFVAAoJEBf5k7aRfguZ4bUIAN5zczsrBwe+9ZCA9gkTKliZ
1EUnnGTI2JNW0rLbiegQWyA+VHD3KJW7NjRPzyf8z+PSQIpIjEpQx2VqAxjE0IEv
znfXUZo5pwyFkVen8fXLCG8qVslyXViDP9Y0H1QkuhNY/cznig7VU8FMvxrYkp6Z
RPTEpZHSC3mUqEjYKw/7wdzwoT5kO2FVKyqjFdWkuUDFurSrymK4x1mVfpy/bHJr
hCinSV2EIDlwoxXxRdGlFqamG2ZtINB5IDmQx+1wMBTl/Kb/SER3xoUKt0ZDtRKh
F9QWV1CNCU3VpIxfmhlqbzWL1MfAB7yPrNOlEICbY4JzOfbDnQ9ir5fYAgY5IaY=
=Q+pt
-----END PGP SIGNATURE-----
