-----BEGIN PGP SIGNATURE-----
Version: BCPG v1.46

iQEcBAABAgAGBQJSvS8aAAoJEBf5k7aRfguZhQIH/A8LvNvmI6QmajUUS3Rexxzd
4RGWVpJr3l0JS2H3URhVH5eFsNQ++fkK0YhrwWizJ0Mrk9U0A6KsL+PWjGvF2jQo
KSAPqPxxo1sz0u+qRo3AzUyIUXqVmnjMB96nKQS00JkNuHe+TPmbABSSY5pZw/v9
ZjRcXLzhTUz3fHR3FCVAvdGc8D+h/5xC8+qMhfnXNB3cAg4MUjd/7bErAHjK079Y
EJ538iyqZdUTfmdI94DdTnzWlwE7q6sNklHqJCifmth15+VbGVjLkqB6UK2eJNRC
pDGMsRusecqiWSlES2id198a5FcPaJ8DHXyqg5+CbNTyQ+l6Ww/XRDSv0Iw17Pg=
=v72t
-----END PGP SIGNATURE-----
