-----BEGIN PGP SIGNATURE-----
Version: BCPG v1.46

iQEcBAABAgAGBQJSyl9HAAoJEBf5k7aRfguZKfwH/0Ef/RKARUJui+EU43EOq4aN
Ju3XcIGTFiwqwHGA89I5Nq0wJ7mDQpNCHI/bQ2RvJlQrHe/rvPf260j08pCNCOpO
xns8ctLQoQAr/ecSMK0ginEl7HHJxxGOJ5BK3NhiAiEzkA0hMx8lok/VFe6nceO9
tVNPI8L2K7GOPiqTSkVKNAael8REIltV3QxjusxnGwc+uKE4J7ClfyC14XdjhuUz
XFiU4WEQsWOg3WtvUBr8ukd/tqz2BcQueBDYBHiZNM26Q1MLMHrBZjfhxE3pPWkx
lG7qIyxQ7rQZuFzcRvl/njiiwSsvdd1+MdiHcatBHX7cSQ3NdH3OMRNuWJrxVLY=
=QtIR
-----END PGP SIGNATURE-----
