-----BEGIN PGP SIGNATURE-----
Version: BCPG v1.46

iQEcBAABAgAGBQJSwOMeAAoJEBf5k7aRfguZvGkIAMTY1OIzQhbTR2aKgGMRgAuJ
pi2YnTm9EbU8pBaLFqGCj7TIig9pNmn7wpVd59vtxqBN+L1mh9UuSW4hzFgz2VN0
SMqFEF1tdPyk9wa5i+QX742s3tZceuCGnNGCwMN+45avE4kV7eqPZ/GZvByIyUzk
xIOUWMxVc/TtSWTljL+eRFUrhbZBWa9KWaGoSXzFzFTveOpapBBMPAsl8/zmMgzs
2bWs2QVVImAviSvWG1OpPZN1WLRXSGzKjCIDN/yo4YIVh8YjV9T+TJndwXBuTN/X
JEUY8wd2ivBvFk+YzkQFyT9gVFFy94Jxw66twfqBjuRybebqa9CzvjAkbpkAA/M=
=ZTJT
-----END PGP SIGNATURE-----
