-----BEGIN PGP SIGNATURE-----
Version: BCPG v1.46

iQEcBAABAgAGBQJSwOMeAAoJEBf5k7aRfguZaloH+gKhvzgHqEU18k9aM67fH4yu
lNAjUErO1hiY5BJdPbcLvPB8CLavbcBuimgJiPLo3fsqoOeVm3UPPRUbuU8oBs6P
Y1uS909eTl5f+K7JOGGHL/EqbyBUft9ShnNbtBRzCyFdTmktpDaxXzxw9s3k8+nq
Fu1E9oGVp680Shz7J9D0Ebw1/mR3iRBRyRLOBcGDTX4zFGw6hJj1GChjbIXso6ei
La0hI98hu2S/qCNgBf4aVL5iG0MP9/k6jixp1SFNowNO6nmOUbdA2PZKsV4cnHSA
4LVelqOG4B9NwVDH1D/s9MDUIxByv7RTEMeEWrD9meuNkx5oap+ANHHRNFO5Gjo=
=gKV0
-----END PGP SIGNATURE-----
