-----BEGIN PGP SIGNATURE-----
Version: BCPG v1.46

iQEcBAABAgAGBQJUQMf8AAoJEBf5k7aRfguZg+YIAKPM9eyAzjznWtJhXjifGuZh
zWTILiKUQPDEKvEXV80nO0psxsN5ArqPeRPpd7XPSY+EJN2bcWNPgpZyH5HIeQwO
NPqQN+MNlTnRNrAhOMcTIPKQNK0kOoxx/r6oedG3awy4onkUJpV0oJaeYBc/OLRZ
UEPU6Dz2c37TJH3nYY4neacPOw22tEON7TOT02RSnlMcTbaNNYu7GBFk6ISr1iBg
jSSAwJU5gMoKHRgJ6DJgMOJUirSwa8qlgPw2QQvhmD3lkBeHH/LNWFh1kvDJWrLq
BIQU+8fitjCmPNax9rh3LSctxQgN1rHFmRe5LSyxfeZMb3Tmq9CjS4Gbrar8kx8=
=1rcX
-----END PGP SIGNATURE-----
