-----BEGIN PGP SIGNATURE-----
Version: BCPG v1.46

iQEcBAABAgAGBQJSqq+NAAoJEBf5k7aRfguZ0wcH/RxEkKfKuLgpkxHnB4oa5R9o
3AeYlleUitYG0+OWOlbUNPQfObux3GYiClDDLVyGa5Zvu7L5VtnPn902F9C3MmSS
2YMJufx3KxJMpONAkKEOIl503e9tw5QDWjqCGjkLt4h5u4FuivU4f48dilfv+aFs
ruydXrAnmSUoudeNLwLLdrbcvyH2ztz5WA3gctt/MXup/Qc0okyFcWAQFtIOmDLk
RaV5u9vKfOlcNQxZeMIUFursBk3gfWjO1cw1PCKsyYiEaWSUJCLAOD7epv7dEwes
B2XaFoFpLiHYvg+leHj5YWMRP9db42iJje1FjW+GbkSZJ9mPRFx+JJOrH91CqV0=
=dNk/
-----END PGP SIGNATURE-----
