-----BEGIN PGP SIGNATURE-----
Version: BCPG v1.46

iQEcBAABAgAGBQJSqq+PAAoJEBf5k7aRfguZqKsH/iFsbQLLY25ocuL2XcotIm4E
qlmLpHZTMZyS+JEpg39mu4c1fh0P1tdbsZ/0/I/+9hRALEr0SvoXPW6wQmE8m6rC
8O0oFmacVAGvqO/MJ4pu4v7gKRrtyfkKodxX4A04zT6NcDsZ5BRYibc7qPiiisSf
yfqbKmqZEIkGZzBiuuVK0M2hijifw06QAKB2tKQb9+NpYComo89x28iRuVbXVy97
QiUYX9A9txtavoDO068b49hV2DfZAg7z6Ayu1X1b+riDP87pZTlB36JQl1vh3E9i
8gAJUUTJWQYkzVLJj9OGq1bQGCaUKL+0Oik9veeJ/TOT+dZ1xSWKg5G7t+yVngQ=
=6aQS
-----END PGP SIGNATURE-----
