-----BEGIN PGP SIGNATURE-----
Version: BCPG v1.46

iQEcBAABAgAGBQJUeKXoAAoJEBf5k7aRfguZ/8cIAKuYyiKlY3SFUTQbLh5FBNCP
Ab2TZGT/lLuSOv4YnoYgQlRCca7r2SlopCwwtUgs5RS/TIuUb8urRDnjTFqX2B3j
8WrzCMBraUFIwAiJVV/Thmgl7JS2boQTkJZvnKGbSrb+a4XiUUwr4a+mGMvMPA0n
if1ge53jy0Q9qY48ppeCT9URPMUavicQIycyA2cdfN+/2bgHIoWquKTRYOUHSJuK
7VO50i4ydD/LnkxO6DpAMRx44EVenD1DGujEZRJaO03lmfmFc0laDERlWtilulsx
soqeoVI/ZoXz/d+uQUf+/ezT8PKHYuxDgNj8K8+C+3CnG73sXzV3knO9X5Wh0Y0=
=Zk3M
-----END PGP SIGNATURE-----
