-----BEGIN PGP SIGNATURE-----
Version: BCPG v1.46

iQEcBAABAgAGBQJUeKZDAAoJEBf5k7aRfguZjiwH/3YNFLPBey6RjG+wG+89qf9v
Po8RHd5pjuxk6B5FOfqQO/GGZXXyKIqL6WHQ53Dj9J/bEM7hJr57CTZcC+JBJUEI
jIpBIIwid7ra9P4GMc1SiTMc/VSZweY79wYB1xnqd5jXZj2I3GoR1ozV8BWrMI/d
uMdfCZfJUAq0LpJ2UVPJjMtQyaVjlskQCZXoznqOhK61N/VtfxjnHzEDpkjlk6pJ
8WUqRdEThxA2NGvBcdxKSQfNeEOLMkiknKVcP3cxPNWLTsCJLf6zlvbeRscFp4/c
7hgrwvGX40Rw3D9rYCqP43GXcO8Xxklv6LD2hxStmABuQbNfOkReOziBNmCa04I=
=3sNx
-----END PGP SIGNATURE-----
