-----BEGIN PGP SIGNATURE-----
Version: BCPG v1.46

iQEbBAABAgAGBQJSZKazAAoJEBf5k7aRfguZI08H9j0T80wz1Cl/tRmH/QV+0DIG
68/NuBtv3ZCFJRk11HnISE3jwaTF3sLHJGr0db0IUiRjCaXjs2LVx3D3i63MVEPT
fhcD3/tvq9cgmmSTK70h7I9PULNhdCq3ThqICZNMGyKIMQhdR6fZfdDW6SuqlSTP
9878WuAMHZ+eeuEJwmIAPlo/cvU2o/efsVAQWWDh99NVRxUmEryBRNrzbFbhu58u
+X20snX/v01FRUv2Jlk/0E6RVahdAv/eQkTzULJWsrIMloBj0jUyz6UysIg2IDg0
B1oRqI5P0Ei8FttdWzyjSkP8GZZ+DymBUBr9CU+7ptVMwWGNzyGtukJ0y7D25Q==
=vEBy
-----END PGP SIGNATURE-----
