-----BEGIN PGP SIGNATURE-----
Version: BCPG v1.46

iQEcBAABAgAGBQJSYshpAAoJEBf5k7aRfguZMewH/1Bo99ajpXo1k8oii5gWiG31
YQdhIExn56MfV2mViSwM45cpgmXatBargFN26yS0ChZnzgw1psbjfQan93M8fw/P
uhzZA3WGRxA8DnTeC+3kkU61ECGVzgq/zTh7TnSnxxxCZUioatIgmllreuV67YVx
CGKLrpW+gZHvmCkz9J6urb8BvNFkpdgKOspLqxsOYtSDLwVG01kZ0IOg2LXdCLmq
750AcRzAnZT6xHVMvaqpPB+sAASSDG+w+tPeBMQLXN/kF5xYq3Hl5EKpaiyFfr3O
otkU1Z+Rm54bGeolPmIhmoqU4P3uLVAfqlV3WKNL3q3oFh8iYoN9MaXcpGiCiZQ=
=XyRZ
-----END PGP SIGNATURE-----
