-----BEGIN PGP SIGNATURE-----
Version: BCPG v1.46

iQEcBAABAgAGBQJSwOXcAAoJEBf5k7aRfguZvSMH+wfRGHvDlQSovKgIiInJZTaa
MCKokRBbD0Ecxl7b7GFqNY8lxK9/EH6tQ6VQCecLNbD4PfWUkQMlbdeUVVQd8DlD
3mrKGqdYShijj5FwpERQBKzIrdDd6MQ6LCEQDbaGpr9VQZ2idhvNyC4Dlg6vGJnb
M4WYa9T97rsPdTn3sqSWRiyVoRRdH43hypSNAdr6+Bsoo3mi3ilfUYfVE6h/f4dp
ExRA+aYARq/BIaciw4rIXlKNRFcJXzLYQ8VK39XaAzH6R+JNWIOLNSsOV7eFVIhN
pab/4PDvqMRMjzMVvTZ66SM1eUSleVeAqn0pDG32Wgt5+WvMKlJcHptRdEwLYD8=
=N6cD
-----END PGP SIGNATURE-----
