-----BEGIN PGP SIGNATURE-----
Version: BCPG v1.46

iQEcBAABAgAGBQJSzPp3AAoJEBf5k7aRfguZWokIAMlALj7v+2oWNgr7oK17gfv1
QAhKdxTQpbqwOSXlLyMDl6CHU0Uu0TZxLqUsHBaEXbI//gydEiB0sPQGQiirvx98
0VczW93whW9uUXoIZ/yCVEyYpkO8Kz/DWt+sZZkEsDS3xSXIXWQzpvyh6KojZ0Of
SzPGLKrN5+uy5aGB+swF/eOp5F4dg2/T90ESCy23pmjuIq9COTqBLMCvK3iqvGMi
3IomS7m4IKxYVswyZwP3DxnuKfNlz2u+VYsLGhP8VwWlZgeQsaaICh6oc7XUF94G
95Ba+4431ihqXdg4l0dvOu0gOO9GYPBH579LaP6XeKPM5WsEZSLds+C8tyrf5bQ=
=/xao
-----END PGP SIGNATURE-----
