-----BEGIN PGP SIGNATURE-----
Version: BCPG v1.46

iQEcBAABAgAGBQJSewbSAAoJEBf5k7aRfguZ5JUIAKElquYZkdOIhibdklMP1EZo
Jlubcg6ZxZIif4IypUoCQTAGt5/+sEguySvhFWjqlY7FIx/D1UAoYCRZgWaAzJVT
bJFVvTkT+eCxsVa0v1oIxDX5HHBwNGBYYjagKok3LVzWXpAaIpgCTl5tU3gKSX2J
fTO/Wu2ZHI2lK5XXIkiOgpDNF+SSMJ610tiwprF+kCEw9k1+3PSpRIzm7RnVo2AE
X/HewxgAIRGIWDgKvJDXi/0oALi6gooyl1jVfekINOmTi87nh8R4oejkNThBnw9+
852SwQmE56pPy+f6G95j5ON+ZFGHwPK5d0cUYx/+7kWLWWPRQiwSFt3CKCPLHng=
=G8Cc
-----END PGP SIGNATURE-----
