-----BEGIN PGP SIGNATURE-----
Version: BCPG v1.46

iQEcBAABAgAGBQJSexEQAAoJEBf5k7aRfguZuQ4H/jbQW/TFWJ2+PKra/z9jrAEl
pi0LFz32NqCuXfO/mtIXeGNOgTgr6qMxZeJI7fW6pyxd149kIftA5ucZQYW+21+S
dLIAdYzFu8dnez7MvrCZFq5AmmudQhAPWAaNd0ts0ZcCcyYW8nhIs6RsLcAW8gzu
kMNCn/5qvm0W9Etnsn/6rzDtX6XBIm93BtvTYthuxrfHfZGRPcrGdHYGhfKDMm9p
zIfvGtlun1znRf30WZZPXhhxG8kZIgLMgFRvCdqH10eZhdwUGUU/Ipo2MGKOtNcW
ierN0rPji7yQRjvlp7PoI0HWj+vHIKVcSuqbDf0pmUg+8iyuBZHuQaqo7dnsReY=
=uQx0
-----END PGP SIGNATURE-----
