-----BEGIN PGP SIGNATURE-----
Version: BCPG v1.46

iQEcBAABAgAGBQJSeyeYAAoJEBf5k7aRfguZR8sH/Aiy3Pnn2ez+Lub9aBrtKD8s
fJtj3ioHlnzuwE7pA0hWUujkmfq4gkic6Rl4goBv7NifBwARHQGMYS9PISwO/nlU
+J9dLZwusdj3DzQCQjdOcx+iH6pAV1ApZnC4xuUJlB1/1sHAsxVKaViUNbdvXXEf
wGjiXLyDvukL62A+MlmpR13gHsPC9Cn2aQArwmqE2331sbayEgH6/IIczkKpLVZ+
ROfMxTk0JCRaLPgoNnXQbf8Dor8Sj8/ECYy77ch5/N8QIQTzfo28/pndrfMccWQg
V3Nuv4tvEursgkO0yJaBK0MQqCAZ+Cx/ofB0VAwGLEZ8Ebi5bGzbEb1d2v7SdFw=
=/Lcq
-----END PGP SIGNATURE-----
