-----BEGIN PGP SIGNATURE-----
Version: BCPG v1.46

iQEcBAABAgAGBQJSZLNrAAoJEBf5k7aRfguZCZIH/j8Vflgwq4CZ2QC2mIc1biAg
lgMPzIB5uTW8LMt4fMEXciFbdYPnYgUEwX0BauwhULGVcpJnp9o16wjb37gOT7ej
gVNu4Dk/vpH80J+OkPcZiXqZKHsNpA+Rdl3CvyLb95i6xaDv68IxxqZ2B4l6fTDR
LYebEqzDmbkG1V74Uul+tF53pJKHN6HIohEkeKDv8wDgxa8QDHcfT2bkmP5V6JwQ
ImR5P0WCUmD7+Mh5ntJMvksyAOTpWpwrbZM4sMImz8kLKcwxF1lFVnU7rQLLFqEI
sAB8Kemt694OYjUgX4bPVIvpeMv8i8xVbP4v6S9daYZFy7PMQx7l1lP9+QBHk4g=
=B3jn
-----END PGP SIGNATURE-----
