-----BEGIN PGP SIGNATURE-----
Version: BCPG v1.46

iQEcBAABAgAGBQJSZKeyAAoJEBf5k7aRfguZ8dMIALRFpw4ebVekf7HBu1ZyO/sd
aLB2o2e4F7UAbgDB2VdkDDZjnJDdmfPm9WXAJYTP5kCM54mw6QvAeHksz8bN+81s
06mh0UHPBm+uVneQkewrl/Y5mKNuroaI7oZJX27kCTpPa+rDZgQzFJY6yfPVQF+R
DGNwWu+OWgY/mAnCvHkx9O2pKgWE2KR+MlM3vJfgBx7t2Hn+nRzNqB8aOG92t753
hk+v1onzQI0UYhqhsXzk3LETKDAndBnPv8fWDtVyAWQqIR20w2t8HoMN2d4Srhcy
oWUrd2eUKFAM0+Pndu7vCvd9D8AdQ80IAflw762xJt3DEbwXVVySrLnueFtRm/s=
=5fm7
-----END PGP SIGNATURE-----
