-----BEGIN PGP SIGNATURE-----
Version: BCPG v1.46

iQEcBAABAgAGBQJSZKeyAAoJEBf5k7aRfguZh3AIALomOQZCpF8DrEh4I0h5j0mP
Z/LJ8A1/SglOQx5M2UfZ8tzSN4ghK2Vwi+NMvlOcTIlKRwdyLukb/Y5Ngm9s5aGi
Htwqac9ytA6tCM1Bm/WoUNt0ca1H4XlB3xCiWgWPz3OP8od7mkk7594/JziLLeGw
tyIo7d01H8ua/YzzCsKrfhyctuh6DGJLgOjOBXZ1qw0A2e30htaGSDisFJISHwOC
0aCTdkcTB75ddfOuyc+fri+QOBx8fQGXA/dXQL/QIz9OWVHRTM1+oqxH3ZEBMPHK
kiVtXK45rFuZzwnWmOkeoWNDGzOVdU8vpUd0MdLPGbOfN+GRZzBXqZRFzIRAyCw=
=MjNz
-----END PGP SIGNATURE-----
