-----BEGIN PGP SIGNATURE-----
Version: BCPG v1.46

iQEcBAABAgAGBQJSzQGMAAoJEBf5k7aRfguZHq8H/iLphUXeg0g0LWAX8r4RzwxB
++QfMEBDM7nBfdxpp/f+Tntx6/GotHxNjcs3xQYIOlFpqDR78OJXnUFV7MlooPD3
n4D/ePsHz9UPm/ZdcJ1Y+onBGaOZkU3xSjGPWf0p7TrEDtX9HNxGbxngW2j7pzSf
K9M/ycsgQXXQPnDM2CinIrQ5eyrNYicQghhdPa+tJlgLI3rjmo0ve4D3aAxrCXH6
44JGj/WdpcjIbtpl347/wDkV4h82p9DfJ0lV9lVjahdBcstGjXSCkTPL73iluq5R
e7AP6AUn3dtk1hzLQ/IYpBRaoI9teYQED5K+MMJtZvmOoCyGI6/gqSxYXCNMNpo=
=x59r
-----END PGP SIGNATURE-----
