-----BEGIN PGP SIGNATURE-----
Version: BCPG v1.46

iQEcBAABAgAGBQJTRNtKAAoJEBf5k7aRfguZm6kH/1mG8OT06ckOnx556PO/QCZK
LQgC/f/TTeWNwqPsrmTD7DEX+j036Ht/vSVPV6oyb90nPLlZ9EeAvIDgt19nX63w
eMWGcfiXziky4cVob/DUOlE0rLb0I2fRr9VjO1W2Nflg5W7sbfPSRN+M9gGsGSKA
VHCABWKM5fULi3MknsB3ahrhkgiGY6awkL4ji9c5JvYMlMDNXcePliY7STK5zn48
cRHihcpepLvhCQ9JNdN7XnipGsxS/GNPAej9GHOMltOTvodqebqTa7U6yP3CAy+O
BgnzwOOeio1E+tQzWX8D3JrcNVhEeSoRLYjiECwPeP0CDj7ws1z5gVnQL+6aUvo=
=b6MP
-----END PGP SIGNATURE-----
